…
Just be lazy. `conflicted` will let you know when you need to
disambiguate.

So now you have automatically dropped groups after summarising over
multiple grouping columns:

``` r
flights %>%
  group_by(year, month, day) %>%
  summarise(max_delay = max(dep_delay, na.rm = TRUE))
#> # A tibble: 365 x 4
#> # Groups:   year, month [12]
#>     year month   day max_delay
#>    <int> <int> <int>     <dbl>
#>  1  2013     1     1       853
#>  2  2013     1     2       379
#>  3  2013     1     3       291
#>  4  2013     1     4       288
#>  5  2013     1     5       327
#>  6  2013     1     6       202
#>  7  2013     1     7       366
#>  8  2013     1     8       188
#>  9  2013     1     9      1301
#> 10  2013     1    10      1126
#> # … with 355 more rows
```

You indicate the grouping is sticking around with the `...` suffix

``` r

flights %>%
  group_by(year, month, day) %>%
  summarise...(max_delay = max(dep_delay, na.rm = TRUE))
#> # A tibble: 365 x 4
#> # Groups:   year, month [12]
#>     year month   day max_delay
#>    <int> <int> <int>     <dbl>
#>  1  2013     1     1       853
#>  2  2013     1     2       379
#>  3  2013     1     3       291
#>  4  2013     1     4       288
#>  5  2013     1     5       327
#>  6  2013     1     6       202
#>  7  2013     1     7       366
#>  8  2013     1     8       188
#>  9  2013     1     9      1301
#> 10  2013     1    10      1126
#> # … with 355 more rows
```

and with mutate:

``` r
flights %>%
  group_by(year, month, day) %>%
  mutate...(day_dep_variance = var(dep_delay)) %>%
  summarise(max_var = max(day_dep_variance))
#> # A tibble: 365 x 4
#> # Groups:   year, month [12]
#>     year month   day max_var
#>    <int> <int> <int>   <dbl>
#>  1  2013     1     1      NA
#>  2  2013     1     2      NA
#>  3  2013     1     3      NA
#>  4  2013     1     4      NA
#>  5  2013     1     5      NA
#>  6  2013     1     6      NA
#>  7  2013     1     7      NA
#>  8  2013     1     8      NA
#>  9  2013     1     9      NA
#> 10  2013     1    10      NA
#> # … with 355 more rows
```
…
